[gd_scene load_steps=3 format=3 uid="uid://ddvqx4d578n1o"]

[ext_resource type="Theme" uid="uid://c3gqfqfn4wf7k" path="res://main_menu.tres" id="1_82jy6"]
[ext_resource type="Script" path="res://instructions.gd" id="1_pju74"]

[node name="Instructions" type="Control"]
layout_mode = 3
anchors_preset = 15
anchor_right = 1.0
anchor_bottom = 1.0
grow_horizontal = 2
grow_vertical = 2
script = ExtResource("1_pju74")

[node name="Outline" type="ColorRect" parent="."]
layout_mode = 1
anchors_preset = 15
anchor_right = 1.0
anchor_bottom = 1.0
offset_left = 50.0
offset_top = 40.0
offset_right = -50.0
offset_bottom = -40.0
grow_horizontal = 2
grow_vertical = 2
color = Color(0.580392, 0.0431373, 0.0431373, 1)

[node name="Box" type="ColorRect" parent="."]
layout_mode = 1
anchors_preset = 15
anchor_right = 1.0
anchor_bottom = 1.0
offset_left = 55.0
offset_top = 45.0
offset_right = -55.0
offset_bottom = -45.0
grow_horizontal = 2
grow_vertical = 2
color = Color(0.0911214, 0.0911215, 0.0911214, 1)

[node name="Title" type="Label" parent="Box"]
layout_mode = 1
anchors_preset = 10
anchor_right = 1.0
offset_left = 25.0
offset_top = 35.0
offset_right = -25.0
offset_bottom = 139.0
grow_horizontal = 2
theme = ExtResource("1_82jy6")
theme_override_font_sizes/font_size = 60
text = "Lorem Ipsum"
horizontal_alignment = 1
vertical_alignment = 1
autowrap_mode = 1
text_overrun_behavior = 1

[node name="Body" type="Label" parent="Box"]
layout_mode = 1
anchors_preset = 8
anchor_left = 0.5
anchor_top = 0.5
anchor_right = 0.5
anchor_bottom = 0.5
offset_left = -160.0
offset_top = -180.0
offset_right = 160.0
offset_bottom = 240.0
grow_horizontal = 2
grow_vertical = 2
theme = ExtResource("1_82jy6")
theme_override_font_sizes/font_size = 30
text = "Recusandae voluptatem ducimus possimus vitae qui nobis dolorem amet. Quis enim minima ab et nemo blanditiis quod. Harum reprehenderit corrupti dolorem soluta debitis. Corporis tempore consequuntur nemo ducimus."
autowrap_mode = 3
text_overrun_behavior = 1

[node name="Continue" type="Button" parent="Box"]
layout_mode = 1
anchors_preset = 7
anchor_left = 0.5
anchor_top = 1.0
anchor_right = 0.5
anchor_bottom = 1.0
offset_left = -95.0
offset_top = -65.0
offset_right = 90.0
offset_bottom = -14.0
grow_horizontal = 2
grow_vertical = 0
theme = ExtResource("1_82jy6")
text = "Continue"

[connection signal="pressed" from="Box/Continue" to="." method="_on_continue"]
